0.03671875,0.01328125,0.948046875
0.03515625,0.011328125,0.952734375
0.040234375,0.014453125,0.969140625
0.053515625,0.01640625,0.95390625
0.07109375,0.015625,0.963671875
0.1109375,0.016015625,0.97109375
0.137109375,0.01484375,0.966015625
0.12265625,0.013671875,0.96953125
0.135546875,0.012890625,0.973046875
0.125390625,0.0171875,0.972265625
0.125390625,0.02578125,0.9703125
0.128125,0.03203125,0.95546875
0.12578125,0.025390625,0.9484375
0.128125,0.02265625,0.958984375
0.120703125,0.0234375,0.952734375
0.090625,0.022265625,0.944140625
0.06328125,0.02265625,0.951171875
0.078515625,0.02109375,0.9453125
0.06875,0.020703125,0.942578125
0.084375,0.015625,0.94375
0.087109375,0.0046875,0.94296875
0.0734375,-0.0015625,0.952734375
0.071484375,-7.8125E-4,0.94375
0.05546875,-0.003125,0.948828125
0.047265625,-0.005078125,0.94609375
0.03359375,-0.00546875,0.951953125
0.0375,-0.0078125,0.9484375
0.03046875,-0.005078125,0.946484375
0.03203125,-0.0046875,0.94296875
0.01484375,-0.00390625,0.9375
0.02734375,-0.00546875,0.93984375
0.04140625,-0.00546875,0.936328125
0.038671875,-0.0046875,0.937109375
0.038671875,-0.002734375,0.934375
0.041796875,-0.003515625,0.934765625
0.0453125,-0.004296875,0.93203125
0.048046875,-0.003515625,0.933203125
0.05625,-0.00625,0.94375
0.0484375,-0.008203125,0.954296875
0.05546875,-0.008984375,0.958203125
0.034375,-0.00546875,0.963671875
0.0375,-0.005078125,0.967578125
0.037109375,-0.004296875,0.969140625
0.030859375,-0.004296875,0.969140625
0.013671875,-0.002734375,0.96796875
0.0140625,-0.001953125,0.96796875
0.006640625,-7.8125E-4,0.96953125
0.007421875,7.8125E-4,0.96171875
0.0109375,0.003125,0.956640625
0.00859375,0.001953125,0.95625
0.019140625,0.0,0.951953125
0.012109375,7.8125E-4,0.953125
0.008984375,0.0015625,0.953125
0.003515625,0.003125,0.953515625
0.0109375,0.004296875,0.95234375
-0.013671875,0.004296875,0.9484375
0.005859375,7.8125E-4,0.947265625
-0.0046875,0.0015625,0.94765625
-0.012109375,0.003125,0.94375
-0.009765625,0.00390625,0.946875
-0.008203125,0.005859375,0.941796875
-0.00234375,0.006640625,0.942578125
-0.012890625,0.0078125,0.94296875
-0.004296875,0.008203125,0.9390625
-0.015625,0.00625,0.946875
0.023046875,0.00546875,0.95234375
7.8125E-4,0.0109375,0.94453125
0.00703125,0.010546875,0.9453125
0.014453125,0.00859375,0.9453125
0.012890625,0.009765625,0.938671875
0.002734375,0.00859375,0.946484375
-0.002734375,0.008203125,0.94765625
0.00859375,0.007421875,0.94296875
0.01328125,0.00546875,0.951953125
0.030078125,0.006640625,0.946875
0.016796875,0.008203125,0.943359375
0.021484375,0.00625,0.951171875
0.02265625,0.00625,0.951171875
0.021875,0.006640625,0.95078125
0.028125,0.00546875,0.957421875
