0.015625,0.03125,0.9375
0.015625,0.02734375,0.92578125
0.01953125,0.03515625,0.921875
0.0234375,0.04296875,0.91796875
0.01953125,0.04296875,0.9140625
0.01953125,0.0390625,0.91796875
0.0234375,0.02734375,0.91796875
0.0234375,0.0234375,0.92578125
0.02734375,0.01953125,0.92578125
0.03125,0.01953125,0.92578125
0.03515625,0.01953125,0.92578125
0.03125,0.01171875,0.9296875
0.02734375,-0.0078125,0.92578125
0.0234375,-0.02734375,0.92578125
0.01953125,-0.04296875,0.92578125
0.01953125,-0.05078125,0.92578125
0.01953125,-0.0546875,0.921875
0.015625,-0.0625,0.9140625
0.01171875,-0.0703125,0.9140625
0.0078125,-0.07421875,0.9140625
0.0078125,-0.07421875,0.91015625
0.0078125,-0.07421875,0.91015625
0.00390625,-0.06640625,0.9140625
0.0,-0.05859375,0.91796875
0.0,-0.0390625,0.91796875
0.0,-0.03125,0.921875
-0.00390625,-0.0390625,0.921875
-0.00390625,-0.03515625,0.92578125
-0.0078125,-0.03515625,0.921875
-0.0078125,-0.04296875,0.91796875
-0.0078125,-0.05078125,0.91015625
-0.0078125,-0.05859375,0.90234375
-0.00390625,-0.05859375,0.89453125
0.0,-0.06640625,0.8828125
0.0,-0.08203125,0.875
0.0,-0.09375,0.87109375
0.0,-0.08984375,0.875
0.0,-0.08984375,0.8828125
-0.00390625,-0.09375,0.89453125
-0.01171875,-0.08203125,0.90625
-0.01953125,-0.0703125,0.91796875
-0.03125,-0.0625,0.92578125
-0.03515625,-0.0703125,0.9296875
-0.046875,-0.0703125,0.93359375
-0.05078125,-0.0625,0.9296875
-0.0546875,-0.06640625,0.9296875
-0.05859375,-0.07421875,0.92578125
-0.05859375,-0.07421875,0.921875
-0.0625,-0.07421875,0.9140625
-0.0625,-0.078125,0.91015625
-0.0625,-0.08984375,0.90625
-0.05859375,-0.09375,0.90625
-0.05859375,-0.0859375,0.91015625
-0.0546875,-0.07421875,0.91796875
-0.0546875,-0.0703125,0.921875
-0.05078125,-0.0546875,0.92578125
-0.0546875,-0.0390625,0.9296875
-0.05078125,-0.03125,0.93359375
-0.0546875,-0.03125,0.9375
-0.0546875,-0.03125,0.9375
-0.0546875,-0.02734375,0.9375
-0.0546875,-0.02734375,0.93359375
-0.05859375,-0.03125,0.93359375
-0.05859375,-0.03125,0.9296875
-0.0625,-0.03515625,0.92578125
-0.06640625,-0.0390625,0.92578125
-0.0703125,-0.046875,0.92578125
-0.07421875,-0.05078125,0.9296875
-0.078125,-0.046875,0.93359375
-0.078125,-0.046875,0.9375
-0.08203125,-0.04296875,0.9453125
-0.0859375,-0.03515625,0.953125
-0.0859375,-0.03125,0.9609375
-0.0859375,-0.02734375,0.9609375
-0.08203125,-0.03125,0.9609375
-0.08203125,-0.03125,0.9609375
-0.078125,-0.03125,0.95703125
-0.07421875,-0.0390625,0.94921875
-0.06640625,-0.046875,0.94140625
-0.0625,-0.0546875,0.93359375
