-0.30078125,-0.46484375,0.75390625
-0.2578125,-0.484375,0.765625
-0.2109375,-0.4921875,0.7734375
-0.18359375,-0.515625,0.78125
-0.15625,-0.52734375,0.77734375
-0.14453125,-0.55078125,0.78125
-0.13671875,-0.5625,0.77734375
-0.12109375,-0.58203125,0.76953125
-0.1015625,-0.59375,0.7734375
-0.07421875,-0.6015625,0.79296875
-0.04296875,-0.59765625,0.80078125
-0.02734375,-0.58203125,0.80078125
-0.015625,-0.5859375,0.7734375
0.0078125,-0.64453125,0.78515625
0.00390625,-0.64453125,0.77734375
0.02734375,-0.640625,0.765625
0.0546875,-0.6328125,0.75390625
0.08203125,-0.62890625,0.7421875
0.11328125,-0.62109375,0.73046875
0.1328125,-0.609375,0.71484375
0.15234375,-0.609375,0.6953125
0.19921875,-0.609375,0.6875
0.25,-0.59765625,0.69921875
0.28125,-0.53125,0.671875
0.33984375,-0.52734375,0.6796875
0.42578125,-0.4921875,0.72265625
0.484375,-0.46875,0.71875
0.53515625,-0.44140625,0.7265625
0.5859375,-0.4140625,0.734375
0.65625,-0.37109375,0.7109375
0.71875,-0.3359375,0.703125
0.75,-0.3046875,0.70703125
0.78125,-0.29296875,0.703125
0.796875,-0.265625,0.69921875
0.8125,-0.2421875,0.69140625
0.8046875,-0.25,0.6640625
0.8125,-0.234375,0.66796875
0.8203125,-0.21484375,0.65625
0.81640625,-0.1953125,0.6484375
0.796875,-0.19140625,0.671875
0.7734375,-0.1875,0.68359375
0.7734375,-0.17578125,0.67578125
0.75390625,-0.140625,0.671875
0.75,-0.09765625,0.66796875
0.73828125,-0.05859375,0.671875
0.71484375,-0.00390625,0.66796875
0.6875,0.0390625,0.67578125
0.65625,0.078125,0.68359375
0.63671875,0.11328125,0.6953125
0.609375,0.17578125,0.7109375
0.609375,0.18359375,0.73828125
0.61328125,0.19921875,0.76171875
0.609375,0.21484375,0.78125
0.59375,0.21875,0.78125
0.56640625,0.23828125,0.76171875
0.5390625,0.25,0.74609375
0.52734375,0.30078125,0.74609375
0.52734375,0.32421875,0.73046875
0.51171875,0.33984375,0.734375
0.484375,0.32421875,0.73046875
0.4296875,0.36328125,0.703125
0.37109375,0.41015625,0.6796875
0.31640625,0.4609375,0.66796875
0.26953125,0.51953125,0.69140625
0.2734375,0.60546875,0.67578125
0.234375,0.6484375,0.69921875
0.1875,0.6484375,0.65234375
0.109375,0.68359375,0.67578125
0.05859375,0.72265625,0.6484375
0.046875,0.7734375,0.64453125
0.04296875,0.8203125,0.65234375
0.01953125,0.828125,0.6640625
-0.0234375,0.8203125,0.67578125
-0.046875,0.78515625,0.66015625
-0.1328125,0.61328125,0.6875
-0.15625,0.5859375,0.6796875
-0.18359375,0.54296875,0.73046875
-0.1875,0.51953125,0.74609375
-0.203125,0.4765625,0.765625
-0.25390625,0.44921875,0.765625
